choaza:01:牟呂町字大塚
choaza:02:牟呂町字奥山
choaza:03:牟呂町字奥山新田
choaza:04:牟呂町字北汐田
choaza:05:牟呂町字古田
choaza:06:牟呂町字古幡焼
choaza:07:牟呂町字中西
choaza:08:牟呂町字東里
choaza:09:牟呂町字百間
choaza:10:牟呂町字松崎
choaza:11:牟呂町字松島
choaza:12:牟呂町字松島東
choaza:13:牟呂町字松東
choaza:14:牟呂町字南汐田
choaza:19:神野新田町字会所前
choaza:21:柱四番町
choaza:22:柱五番町
choaza:24:藤沢町
choaza:25:潮崎町
rosen_go:21.5-1:1115
rosen_go:16-01:983
rosen_go:16-02:972
rosen_go:16-03:963
rosen_go:16-04:967
rosen_go:16-05:969
rosen_go:16-06:997
rosen_go:16-07:1039
rosen_go:16-08:1051
rosen_go:16-09:1051
rosen_go:16-10:1035
rosen_go:16-11:1025
rosen_go:16-12:1023
rosen_go:16-13:999
rosen_go:16-14:1016
rosen_go:16-15:1013
rosen_go:16-16:1027
rosen_go:16-17:1019
rosen_go:16-18:1040
rosen_go:16-19:1033
rosen_go:16-20:1025
rosen_go:16-21:1010
rosen_go:14-1-1:953
rosen_go:14-1-2:972
rosen_go:12-1-1:978
rosen_go:12-1-2:981
rosen_go:12-2:1012
rosen_go:11.5-1-1:982
rosen_go:11.5-1-2:995
rosen_go:11.5-1-3:989
rosen_go:11.5-1-4:1002
rosen_go:11.5-1-5:983
rosen_go:11.5-1-6:996
rosen_go:11.5-2-1:1002
rosen_go:11.5-2-2:1015
rosen_go:11.5-2-3:995
rosen_go:11.5-2-4:1008
rosen_go:11.5-2-5:991
rosen_go:11.5-2-6:1004
rosen_go:11.5-2-7:989
rosen_go:11.5-2-8:1002
rosen_go:09.5-1-1:899
rosen_go:09.5-1-2:912
rosen_go:09.5-2-1:905
rosen_go:09.5-2-2:918
rosen_go:09.5-3-1:940
rosen_go:09.5-3-2:954
rosen_go:09.5-4-1:954
rosen_go:09.5-4-2:967
rosen_go:09.0-1:873
rosen_go:08-1-1:949
rosen_go:08-1-2:923
rosen_go:08-1-3:919
rosen_go:08-2-1:922
rosen_go:08-2-2:915
rosen_go:08-3-1:899
rosen_go:08-3-2:909
rosen_go:08-3-3:905
rosen_go:08-3-4:905
rosen_go:08-3-5:903
rosen_go:08-3-6:897
rosen_go:07-1-1:931
rosen_go:07-1-2:944
rosen_go:06-01-1:819
rosen_go:06-01-2:821
rosen_go:06-01-3:823
rosen_go:06-01-4:826
rosen_go:06-01-5:831
rosen_go:06-01-6:829
rosen_go:06-02:831
rosen_go:06-03:829
rosen_go:06-04:833
rosen_go:06-05:838
rosen_go:06-06-1:838
rosen_go:06-06-2:839
rosen_go:06-07-1:832
rosen_go:06-07-2:840
rosen_go:06-08:839
rosen_go:06-09-1:827
rosen_go:06-09-2:835
rosen_go:06-09-3:837
rosen_go:06-09-4:825
rosen_go:06-10-1:830
rosen_go:06-10-2:830
rosen_go:06-11:833
rosen_go:06-12-1:852
rosen_go:06-12-2:862
rosen_go:06-12-3:888
rosen_go:06-12-4:892
rosen_go:06-13:860
rosen_go:06-14:859
rosen_go:06-15:864
rosen_go:06-16:922
rosen_go:06-17:901
rosen_go:06-18-1:845
rosen_go:06-18-2:855
rosen_go:06-18-3:851
rosen_go:06-18-4:838
rosen_go:06-19-1:869
rosen_go:06-19-2:866
rosen_go:06-20:880
rosen_go:06-21:896
rosen_go:06-22:889
rosen_go:06-23:880
rosen_go:06-24-1:923
rosen_go:06-24-2:908
rosen_go:06-24-3:893
rosen_go:06-25:916
rosen_go:06-26-1:912
rosen_go:06-26-2:907
rosen_go:06-27:912
rosen_go:06-28:897
rosen_go:06-29:896
rosen_go:06-30:887
rosen_go:06-31-1:882
rosen_go:06-31-2:886
rosen_go:06-31-3:871
rosen_go:06-32-1:874
rosen_go:06-32-2:879
rosen_go:06-33-1:850
rosen_go:06-33-2:864
rosen_go:06-34:865
rosen_go:06-35:888
rosen_go:06-36:900
rosen_go:06-37:912
rosen_go:06-38:862
rosen_go:06-39-1:876
rosen_go:06-39-2:889
rosen_go:06-40:874
rosen_go:06-41:885
rosen_go:06-42-1:874
rosen_go:06-42-2:860
rosen_go:06-43:877
rosen_go:06-44:891
rosen_go:06-45-1:889
rosen_go:06-45-2:890
rosen_go:06-46-1:889
rosen_go:06-46-2:889
rosen_go:06-47:888
rosen_go:06-48:887
rosen_go:06-49:888
rosen_go:06-50:883
rosen_go:06-51-1:881
rosen_go:06-51-2:874
rosen_go:06-52:889
rosen_go:06-53-1:870
rosen_go:06-53-2:858
rosen_go:06-54-1:871
rosen_go:06-54-2:862
rosen_go:06-55-1:864
rosen_go:06-55-2:856
rosen_go:06-56:859
rosen_go:06-57:863
rosen_go:06-58:866
rosen_go:06-59:870
rosen_go:06-60:870
rosen_go:06-61:863
rosen_go:06-62:877
rosen_go:06-63-1:873
rosen_go:06-63-2:875
rosen_go:06-64:882
rosen_go:06-65:889
rosen_go:06-66-1:865
rosen_go:06-66-2:859
rosen_go:06-67:872
rosen_go:06-68:862
rosen_go:06-69:861
rosen_go:06-70:861
rosen_go:06-71-1:884
rosen_go:06-71-2:874
rosen_go:06-72:867
rosen_go:06-73:796
rosen_go:06-75:859
rosen_go:06-76:855
rosen_go:06-77:824
rosen_go:05-1:866
rosen_go:01.7-1:891
rosen_go:01.5-1:880
rosen_go:04.8-1:769
rosen_go:T6-1:900
rosen_go:T6-2:842
rosen_go:T6-3:894
rosen_go:T6-4:891
rosen_go:T6-5:859
rosen_go:K-1:734
rosen_go:K-2:809
rosen_go:K-3:821
rosen_go:14-2:1020
oku:001:0.800
oku:002:0.875
oku:003:0.911
oku:004:0.937
oku:005:0.954
oku:006:0.967
oku:007:0.979
oku:008:0.987
oku:009:0.994
oku:010:1.000
oku:011:1.000
oku:012:1.000
oku:013:1.000
oku:014:1.000
oku:015:1.000
oku:016:1.000
oku:017:1.000
oku:018:1.000
oku:019:1.000
oku:020:1.000
oku:021:1.000
oku:022:1.000
oku:023:1.000
oku:024:1.000
oku:025:1.000
oku:026:0.997
oku:027:0.994
oku:028:0.991
oku:029:0.988
oku:030:0.985
oku:031:0.982
oku:032:0.979
oku:033:0.976
oku:034:0.973
oku:035:0.971
oku:036:0.968
oku:037:0.965
oku:038:0.963
oku:039:0.960
oku:040:0.958
oku:041:0.955
oku:042:0.953
oku:043:0.950
oku:044:0.948
oku:045:0.946
oku:046:0.943
oku:047:0.941
oku:048:0.938
oku:049:0.936
oku:050:0.934
oku:051:0.931
oku:052:0.929
oku:053:0.927
oku:054:0.925
oku:055:0.922
oku:056:0.920
oku:057:0.918
oku:058:0.915
oku:059:0.913
oku:060:0.911
oku:061:0.911
oku:062:0.911
oku:063:0.911
oku:064:0.911
oku:065:0.911
oku:066:0.911
oku:067:0.911
oku:068:0.911
oku:069:0.911
oku:070:0.911
oku:071:0.911
oku:072:0.911
oku:073:0.911
oku:074:0.911
oku:075:0.911
oku:076:0.911
oku:077:0.911
oku:078:0.911
oku:079:0.911
oku:080:0.911
oku:081:0.911
oku:082:0.911
oku:083:0.911
oku:084:0.911
oku:085:0.911
oku:086:0.911
oku:087:0.911
oku:088:0.911
oku:089:0.911
oku:090:0.911
oku:091:0.911
oku:092:0.911
oku:093:0.911
oku:094:0.911
oku:095:0.911
oku:096:0.911
oku:097:0.911
oku:098:0.911
oku:099:0.911
oku:100:0.911
oku:101:0.911
oku:102:0.911
oku:103:0.911
oku:104:0.911
oku:105:0.911
oku:106:0.911
oku:107:0.911
oku:108:0.911
oku:109:0.911
oku:110:0.911
oku:111:0.911
oku:112:0.911
oku:113:0.911
oku:114:0.911
oku:115:0.911
oku:116:0.911
oku:117:0.911
oku:118:0.911
oku:119:0.911
oku:120:0.911
oku:121:0.911
oku:122:0.911
oku:123:0.911
oku:124:0.911
oku:125:0.911
oku:126:0.911
oku:127:0.911
oku:128:0.911
oku:129:0.911
oku:130:0.911
oku:131:0.911
oku:132:0.911
oku:133:0.911
oku:134:0.911
oku:135:0.911
oku:136:0.911
oku:137:0.911
oku:138:0.911
oku:139:0.911
oku:140:0.911
oku:141:0.911
oku:142:0.911
oku:143:0.911
oku:144:0.911
oku:145:0.911
oku:146:0.911
oku:147:0.911
oku:148:0.911
oku:149:0.911
oku:150:0.911
hoko:N:0.970
hoko:E:1.000
hoko:W:1.000
hoko:S:1.030
hoko:NE:0.985
hoko:SE:1.015
hoko:SW:1.015
hoko:NW:0.985
sankaku:8D00:1.000
sankaku:8D01:0.999
sankaku:8D02:0.998
sankaku:8D03:0.997
sankaku:8D04:0.996
sankaku:8D05:0.995
sankaku:8D06:0.994
sankaku:8D07:0.993
sankaku:8D08:0.992
sankaku:8D09:0.991
sankaku:8D10:0.990
sankaku:7U00:0.998
sankaku:7U01:0.993
sankaku:7U02:0.989
sankaku:7U03:0.984
sankaku:7U04:0.979
sankaku:7U05:0.974
sankaku:7U06:0.970
sankaku:7U07:0.965
sankaku:7U08:0.960
sankaku:7U09:0.955
sankaku:7U10:0.952
sankaku:7D00:0.996
sankaku:7D01:0.987
sankaku:7D02:0.980
sankaku:7D03:0.971
sankaku:7D04:0.962
sankaku:7D05:0.953
sankaku:7D06:0.946
sankaku:7D07:0.937
sankaku:7D08:0.928
sankaku:7D09:0.919
sankaku:7D10:0.914
sankaku:6U00:0.994
sankaku:6U01:0.981
sankaku:6U02:0.971
sankaku:6U03:0.958
sankaku:6U04:0.945
sankaku:6U05:0.932
sankaku:6U06:0.922
sankaku:6U07:0.909
sankaku:6U08:0.896
sankaku:6U09:0.883
sankaku:6U10:0.876
sankaku:6D00:0.992
sankaku:6D01:0.975
sankaku:6D02:0.962
sankaku:6D03:0.945
sankaku:6D04:0.928
sankaku:6D05:0.911
sankaku:6D06:0.898
sankaku:6D07:0.881
sankaku:6D08:0.864
sankaku:6D09:0.847
sankaku:6D10:0.838
sankaku:5U00:0.990
sankaku:5U01:0.969
sankaku:5U02:0.953
sankaku:5U03:0.932
sankaku:5U04:0.911
sankaku:5U05:0.890
sankaku:5U06:0.874
sankaku:5U07:0.853
sankaku:5U08:0.832
sankaku:5U09:0.811
sankaku:5U10:0.800
sankaku:5D00:0.988
sankaku:5D01:0.963
sankaku:5D02:0.944
sankaku:5D03:0.919
sankaku:5D04:0.894
sankaku:5D05:0.869
sankaku:5D06:0.850
sankaku:5D07:0.825
sankaku:5D08:0.800
sankaku:5D09:0.775
sankaku:5D10:0.762
sankaku:4U00:0.986
sankaku:4U01:0.957
sankaku:4U02:0.935
sankaku:4U03:0.906
sankaku:4U04:0.877
sankaku:4U05:0.848
sankaku:4U06:0.826
sankaku:4U07:0.797
sankaku:4U08:0.768
sankaku:4U09:0.739
sankaku:4U10:0.724
sankaku:4D00:0.984
sankaku:4D01:0.951
sankaku:4D02:0.926
sankaku:4D03:0.893
sankaku:4D04:0.860
sankaku:4D05:0.827
sankaku:4D06:0.802
sankaku:4D07:0.769
sankaku:4D08:0.736
sankaku:4D09:0.703
sankaku:4D10:0.700
sankaku:3U00:0.982
sankaku:3U01:0.945
sankaku:3U02:0.917
sankaku:3U03:0.880
sankaku:3U04:0.843
sankaku:3U05:0.806
sankaku:3U06:0.778
sankaku:3U07:0.741
sankaku:3U08:0.704
sankaku:3U09:0.700
sankaku:3U10:0.700
sankaku:3D00:0.980
sankaku:3D01:0.939
sankaku:3D02:0.908
sankaku:3D03:0.867
sankaku:3D04:0.826
sankaku:3D05:0.785
sankaku:3D06:0.754
sankaku:3D07:0.713
sankaku:3D08:0.700
sankaku:3D09:0.700
sankaku:3D10:0.700
sankaku:2U00:0.978
sankaku:2U01:0.933
sankaku:2U02:0.899
sankaku:2U03:0.854
sankaku:2U04:0.809
sankaku:2U05:0.764
sankaku:2U06:0.730
sankaku:2U07:0.700
sankaku:2U08:0.700
sankaku:2U09:0.700
sankaku:2U10:0.700
sankaku:2D00:0.976
sankaku:2D01:0.927
sankaku:2D02:0.890
sankaku:2D03:0.841
sankaku:2D04:0.792
sankaku:2D05:0.743
sankaku:2D06:0.706
sankaku:2D07:0.700
sankaku:2D08:0.700
sankaku:2D09:0.700
sankaku:2D10:0.700
sankaku:1U00:0.974
sankaku:1U01:0.921
sankaku:1U02:0.881
sankaku:1U03:0.828
sankaku:1U04:0.775
sankaku:1U05:0.722
sankaku:1U06:0.700
sankaku:1U07:0.700
sankaku:1U08:0.700
sankaku:1U09:0.700
sankaku:1U10:0.700
tan:001:1.000
tan:002:1.000
tan:003:1.000
tan:004:1.000
tan:005:1.000
tan:006:1.000
tan:007:1.000
tan:008:1.000
tan:009:1.000
tan:010:1.000
tan:011:1.000
tan:012:1.000
tan:013:1.000
tan:014:0.993
tan:015:0.986
tan:016:0.979
tan:017:0.973
tan:018:0.966
tan:019:0.959
tan:020:0.953
tan:021:0.946
tan:022:0.939
tan:023:0.933
tan:024:0.926
tan:025:0.920
tan:026:0.915
tan:027:0.912
tan:028:0.908
tan:029:0.903
tan:030:0.899
tan:031:0.896
tan:032:0.892
tan:033:0.887
tan:034:0.884
tan:035:0.880
tan:036:0.875
tan:037:0.871
tan:038:0.868
tan:039:0.863
tan:040:0.859
tan:041:0.856
tan:042:0.852
tan:043:0.847
tan:044:0.843
tan:045:0.840
tan:046:0.835
tan:047:0.831
tan:048:0.828
tan:049:0.823
tan:050:0.819
tan:051:0.815
tan:052:0.812
tan:053:0.807
tan:054:0.803
tan:055:0.800
tan:056:0.795
tan:057:0.791
tan:058:0.787
tan:059:0.783
tan:060:0.779
kotei:+1.0:1.000
kotei:+1.5:0.999
